{
  "ModuleName": "Плагин для загрузки файлов",
  "ModuleURI": "slim-skeleton/uploader",
  "Description": "Lorem ipsum dolor sit amet, consectetur adipisicing elit. Assumenda atque consequatur debitis delectus deserunt.",
  "Version": "1.0",
  "Author": "John Doe",
  "AuthorURI": "author@gmail.com",
  "License": "Apache License"
}